Przykładowy_Projekt/ADCInput/ADCInput/ADCInputWave.vcd
$date
     Aug 27, 2017       17:17:49
$end

$version
 SystemC 2.3.1-Accellera --- Aug 27 2017 00:15:15
$end

$timescale
     1 ps
$end

$scope module SystemC $end
$var wire    1  aaaaa  clk       $end
$var wire    1  aaaab  busy       $end
$var wire   18  aaaac  inData [17:0]  $end
$var wire    1  aaaad  read       $end
$var wire    1  aaaae  ready       $end
$var wire   18  aaaaf  outData [17:0]  $end
$upscope $end
$enddefinitions  $end

$comment
All initial values are dumped below at time 0 sec = 0 timescale units.
$end

$dumpvars
1aaaaa
1aaaab
b0 aaaac
0aaaad
0aaaae
b0 aaaaf
$end

#100000
0aaaaa
0aaaab
1aaaae

#200000
1aaaaa
1aaaab
b1 aaaac

#300000
0aaaaa
0aaaab

#400000
1aaaaa
1aaaab
b10 aaaac

#500000
0aaaaa
0aaaab
1aaaad
b1 aaaaf

#521000
0aaaad

#541000
1aaaad
0aaaae
b10 aaaaf

#562000
0aaaad

#600000
1aaaaa
1aaaab
b11 aaaac

#700000
0aaaaa
0aaaab
1aaaae

#800000
1aaaaa
1aaaab
b100 aaaac

#900000
0aaaaa
0aaaab

#982000
1aaaad
b11 aaaaf

#1000000
1aaaaa
1aaaab
b101 aaaac

#1003000
0aaaad

#1023000
1aaaad
b100 aaaaf

#1044000
0aaaad

#1064000
1aaaad
0aaaae
b101 aaaaf

#1085000
0aaaad

#1100000
0aaaaa
0aaaab

#1200000
1aaaaa
1aaaab
b110 aaaac

#1300000
0aaaaa
0aaaab
1aaaae

#1400000
1aaaaa
1aaaab
b111 aaaac

#1500000
0aaaaa
0aaaab

#1505000
1aaaad
b110 aaaaf

#1526000
0aaaad

#1546000
1aaaad
0aaaae
b111 aaaaf

#1567000
0aaaad

#1600000
1aaaaa
1aaaab
b1000 aaaac

#1700000
0aaaaa
0aaaab
1aaaae

#1800000
1aaaaa
1aaaab
b1001 aaaac

#1900000
0aaaaa
0aaaab

#1987000
1aaaad
b1000 aaaaf

#2000000
1aaaaa
1aaaab
b1010 aaaac

#2008000
0aaaad

#2028000
1aaaad
b1001 aaaaf

#2049000
0aaaad

#2069000
1aaaad
0aaaae
b1010 aaaaf

#2090000
0aaaad

#2100000
0aaaaa
0aaaab

#2200000
1aaaaa
1aaaab
b1011 aaaac

#2300000
0aaaaa
0aaaab
1aaaae

#2400000
1aaaaa
1aaaab
b1100 aaaac

#2500000
0aaaaa
0aaaab

#2510000
1aaaad
b1011 aaaaf

#2531000
0aaaad

#2551000
1aaaad
0aaaae
b1100 aaaaf

#2572000
0aaaad

#2600000
1aaaaa
1aaaab
b1101 aaaac

#2700000
0aaaaa
0aaaab
1aaaae

#2800000
1aaaaa
1aaaab
b1110 aaaac

#2900000
0aaaaa
0aaaab

#2992000
1aaaad
b1101 aaaaf

#3000000
1aaaaa
1aaaab
b1111 aaaac

#3013000
0aaaad

#3033000
1aaaad
b1110 aaaaf

#3054000
0aaaad

#3074000
1aaaad
0aaaae
b1111 aaaaf

#3095000
0aaaad

#3100000
0aaaaa
0aaaab

#3200000
1aaaaa
1aaaab
b10000 aaaac

#3300000
0aaaaa
0aaaab
1aaaae

#3400000
1aaaaa
1aaaab
b10001 aaaac

#3500000
0aaaaa
0aaaab

#3515000
1aaaad
b10000 aaaaf

#3536000
0aaaad

#3556000
1aaaad
0aaaae
b10001 aaaaf

#3577000
0aaaad

#3600000
1aaaaa
1aaaab
b10010 aaaac

#3700000
0aaaaa
0aaaab
1aaaae

#3800000
1aaaaa
1aaaab
b10011 aaaac

#3900000
0aaaaa
0aaaab

#3997000
1aaaad
b10010 aaaaf

#4000000
1aaaaa
1aaaab
b10100 aaaac

#4018000
0aaaad

#4038000
1aaaad
b10011 aaaaf

#4059000
0aaaad

#4079000
1aaaad
0aaaae
b10100 aaaaf

#4100000
0aaaaa
0aaaab
0aaaad

#4200000
1aaaaa
1aaaab
b10101 aaaac

#4300000
0aaaaa
0aaaab
1aaaae

#4400000
1aaaaa
1aaaab
b10110 aaaac

#4500000
0aaaaa
0aaaab

#4520000
1aaaad
b10101 aaaaf

#4541000
0aaaad

#4561000
1aaaad
0aaaae
b10110 aaaaf

#4582000
0aaaad

#4600000
1aaaaa
1aaaab
b10111 aaaac

#4700000
0aaaaa
0aaaab
1aaaae

#4800000
1aaaaa
1aaaab
b11000 aaaac

#4900000
0aaaaa
0aaaab

#5000000
1aaaaa
1aaaab
b11001 aaaac

#5002000
1aaaad
b10111 aaaaf

#5023000
0aaaad

#5043000
1aaaad
b11000 aaaaf

#5064000
0aaaad

#5084000
1aaaad
0aaaae
b11001 aaaaf

#5100000
0aaaaa
0aaaab

#5105000
0aaaad

#5200000
1aaaaa
1aaaab
b11010 aaaac

#5300000
0aaaaa
0aaaab
1aaaae

#5400000
1aaaaa
1aaaab
b11011 aaaac

#5500000
0aaaaa
0aaaab

#5525000
1aaaad
b11010 aaaaf

#5546000
0aaaad

#5566000
1aaaad
0aaaae
b11011 aaaaf

#5587000
0aaaad

#5600000
1aaaaa
1aaaab
b11100 aaaac

#5700000
0aaaaa
0aaaab
1aaaae

#5800000
1aaaaa
1aaaab
b11101 aaaac

#5900000
0aaaaa
0aaaab

#6000000
1aaaaa
1aaaab
b11110 aaaac

#6007000
1aaaad
b11100 aaaaf

#6028000
0aaaad

#6048000
1aaaad
b11101 aaaaf

#6069000
0aaaad

#6089000
1aaaad
0aaaae
b11110 aaaaf

#6100000
0aaaaa
0aaaab

#6110000
0aaaad

#6200000
1aaaaa
1aaaab
b11111 aaaac

#6300000
0aaaaa
0aaaab
1aaaae

#6400000
1aaaaa
1aaaab
b100000 aaaac

#6500000
0aaaaa
0aaaab

#6530000
1aaaad
b11111 aaaaf

#6551000
0aaaad

#6571000
1aaaad
0aaaae
b100000 aaaaf

#6592000
0aaaad

#6600000
1aaaaa
1aaaab
b100001 aaaac

#6700000
0aaaaa
0aaaab
1aaaae

#6800000
1aaaaa
1aaaab
b100010 aaaac

#6900000
0aaaaa
0aaaab

#7000000
1aaaaa
1aaaab
b100011 aaaac

#7012000
1aaaad
b100001 aaaaf

#7033000
0aaaad

#7053000
1aaaad
b100010 aaaaf

#7074000
0aaaad

#7094000
1aaaad
0aaaae
b100011 aaaaf

#7100000
0aaaaa
0aaaab

#7115000
0aaaad

#7200000
1aaaaa
1aaaab
b100100 aaaac

#7300000
0aaaaa
0aaaab
1aaaae

#7400000
1aaaaa
1aaaab
b100101 aaaac

#7500000
0aaaaa
0aaaab

#7535000
1aaaad
b100100 aaaaf

#7556000
0aaaad

#7576000
1aaaad
0aaaae
b100101 aaaaf

#7597000
0aaaad

#7600000
1aaaaa
1aaaab
b100110 aaaac

#7700000
0aaaaa
0aaaab
1aaaae

#7800000
1aaaaa
1aaaab
b100111 aaaac

#7900000
0aaaaa
0aaaab

#8000000
1aaaaa
1aaaab
b101000 aaaac

#8017000
1aaaad
b100110 aaaaf

#8038000
0aaaad

#8058000
1aaaad
b100111 aaaaf

#8079000
0aaaad

#8099000
1aaaad
0aaaae
b101000 aaaaf

#8100000
0aaaaa
0aaaab

#8120000
0aaaad

#8200000
1aaaaa
1aaaab
b101001 aaaac

#8300000
0aaaaa
0aaaab
1aaaae

#8400000
1aaaaa
1aaaab
b101010 aaaac

#8500000
0aaaaa
0aaaab

#8540000
1aaaad
b101001 aaaaf

#8561000
0aaaad

#8581000
1aaaad
0aaaae
b101010 aaaaf

#8600000
1aaaaa
1aaaab
b101011 aaaac

#8602000
0aaaad

#8700000
0aaaaa
0aaaab
1aaaae

#8800000
1aaaaa
1aaaab
b101100 aaaac

#8900000
0aaaaa
0aaaab

#9000000
1aaaaa
1aaaab
b101101 aaaac

#9022000
1aaaad
b101011 aaaaf

#9043000
0aaaad

#9063000
1aaaad
b101100 aaaaf

#9084000
0aaaad

#9100000
0aaaaa
0aaaab

#9104000
1aaaad
0aaaae
b101101 aaaaf

#9125000
0aaaad

#9200000
1aaaaa
1aaaab
b101110 aaaac

#9300000
0aaaaa
0aaaab
1aaaae

#9400000
1aaaaa
1aaaab
b101111 aaaac

#9500000
0aaaaa
0aaaab

#9545000
1aaaad
b101110 aaaaf

#9566000
0aaaad

#9586000
1aaaad
0aaaae
b101111 aaaaf

#9600000
1aaaaa
1aaaab
b110000 aaaac

#9607000
0aaaad

#9700000
0aaaaa
0aaaab
1aaaae

#9800000
1aaaaa
1aaaab
b110001 aaaac

#9900000
0aaaaa
0aaaab

#10000000
1aaaaa
1aaaab
b110010 aaaac

#10027000
1aaaad
b110000 aaaaf

#10048000
0aaaad

#10068000
1aaaad
b110001 aaaaf

#10089000
0aaaad

#10100000
0aaaaa
0aaaab

#10109000
1aaaad
0aaaae
b110010 aaaaf

#10130000
0aaaad

#10200000
1aaaaa
1aaaab
b110011 aaaac

#10300000
0aaaaa
0aaaab
1aaaae

#10400000
1aaaaa
1aaaab
b110100 aaaac

#10500000
0aaaaa
0aaaab

#10550000
1aaaad
b110011 aaaaf

#10571000
0aaaad

#10591000
1aaaad
0aaaae
b110100 aaaaf

#10600000
1aaaaa
1aaaab
b110101 aaaac

#10612000
0aaaad

#10700000
0aaaaa
0aaaab
1aaaae

#10800000
1aaaaa
1aaaab
b110110 aaaac

#10900000
0aaaaa
0aaaab

#11000000
1aaaaa
1aaaab
b110111 aaaac

#11032000
1aaaad
b110101 aaaaf

#11053000
0aaaad

#11073000
1aaaad
b110110 aaaaf

#11094000
0aaaad

#11100000
0aaaaa
0aaaab

#11114000
1aaaad
0aaaae
b110111 aaaaf

#11135000
0aaaad

#11200000
1aaaaa
1aaaab
b111000 aaaac

#11300000
0aaaaa
0aaaab
1aaaae

#11400000
1aaaaa
1aaaab
b111001 aaaac

#11500000
0aaaaa
0aaaab

#11555000
1aaaad
b111000 aaaaf

#11576000
0aaaad

#11596000
1aaaad
0aaaae
b111001 aaaaf

#11600000
1aaaaa
1aaaab
b111010 aaaac

#11617000
0aaaad

#11700000
0aaaaa
0aaaab
1aaaae

#11800000
1aaaaa
1aaaab
b111011 aaaac

#11900000
0aaaaa
0aaaab

#12000000
1aaaaa
1aaaab
b111100 aaaac

#12037000
1aaaad
b111010 aaaaf

#12058000
0aaaad

#12078000
1aaaad
b111011 aaaaf

#12099000
0aaaad

#12100000
0aaaaa
0aaaab

#12119000
1aaaad
0aaaae
b111100 aaaaf

#12140000
0aaaad

#12200000
1aaaaa
1aaaab
b111101 aaaac

#12300000
0aaaaa
0aaaab
1aaaae

#12400000
1aaaaa
1aaaab
b111110 aaaac

#12500000
0aaaaa
0aaaab

#12560000
1aaaad
b111101 aaaaf

#12581000
0aaaad

#12600000
1aaaaa
1aaaab
b111111 aaaac

#12601000
1aaaad
b111110 aaaaf

#12622000
0aaaad

#12642000
1aaaad
0aaaae
b111111 aaaaf

#12663000
0aaaad

#12700000
0aaaaa
0aaaab

#12800000
1aaaaa
1aaaab
b1000000 aaaac

#12900000
0aaaaa
0aaaab
1aaaae

#13000000
1aaaaa
1aaaab
b1000001 aaaac

#13083000
1aaaad
b1000000 aaaaf

#13100000
0aaaaa
0aaaab
0aaaae
b1000001 aaaaf

#13104000
0aaaad

#13200000
1aaaaa
1aaaab
b1000010 aaaac

#13300000
0aaaaa
0aaaab
1aaaae

#13400000
1aaaaa
1aaaab
b1000011 aaaac

#13500000
0aaaaa
0aaaab

#13524000
1aaaad
b1000010 aaaaf

#13545000
0aaaad

#13565000
1aaaad
0aaaae
b1000011 aaaaf

#13586000
0aaaad

#13600000
1aaaaa
1aaaab
b1000100 aaaac

#13700000
0aaaaa
0aaaab
1aaaae

#13800000
1aaaaa
1aaaab
b1000101 aaaac

#13900000
0aaaaa
0aaaab

#14000000
1aaaaa
1aaaab
b1000110 aaaac

#14006000
1aaaad
b1000100 aaaaf

#14027000
0aaaad

#14047000
1aaaad
b1000101 aaaaf

#14068000
0aaaad

#14088000
1aaaad
0aaaae
b1000110 aaaaf

#14100000
0aaaaa
0aaaab

#14109000
0aaaad

#14200000
1aaaaa
1aaaab
b1000111 aaaac

#14300000
0aaaaa
0aaaab
1aaaae

#14400000
1aaaaa
1aaaab
b1001000 aaaac

#14500000
0aaaaa
0aaaab

#14529000
1aaaad
b1000111 aaaaf

#14550000
0aaaad

#14570000
1aaaad
0aaaae
b1001000 aaaaf

#14591000
0aaaad

#14600000
1aaaaa
1aaaab
b1001001 aaaac

#14700000
0aaaaa
0aaaab
1aaaae

#14800000
1aaaaa
1aaaab
b1001010 aaaac

#14900000
0aaaaa
0aaaab

#15000000
1aaaaa
1aaaab
b1001011 aaaac

#15011000
1aaaad
b1001001 aaaaf

#15032000
0aaaad

#15052000
1aaaad
b1001010 aaaaf

#15073000
0aaaad

#15093000
1aaaad
0aaaae
b1001011 aaaaf

#15100000
0aaaaa
0aaaab

#15114000
0aaaad

#15200000
1aaaaa
1aaaab
b1001100 aaaac

#15300000
0aaaaa
0aaaab
1aaaae

#15400000
1aaaaa
1aaaab
b1001101 aaaac

#15500000
0aaaaa
0aaaab

#15534000
1aaaad
b1001100 aaaaf

#15555000
0aaaad

#15575000
1aaaad
0aaaae
b1001101 aaaaf

#15596000
0aaaad

#15600000
1aaaaa
1aaaab
b1001110 aaaac

#15700000
0aaaaa
0aaaab
1aaaae

#15800000
1aaaaa
1aaaab
b1001111 aaaac

#15900000
0aaaaa
0aaaab

#16000000
1aaaaa
1aaaab
b1010000 aaaac

#16016000
1aaaad
b1001110 aaaaf

#16037000
0aaaad

#16057000
1aaaad
b1001111 aaaaf

#16078000
0aaaad

#16098000
1aaaad
0aaaae
b1010000 aaaaf

#16100000
0aaaaa
0aaaab

#16119000
0aaaad

#16200000
1aaaaa
1aaaab
b1010001 aaaac

#16300000
0aaaaa
0aaaab
1aaaae

#16400000
1aaaaa
1aaaab
b1010010 aaaac

#16500000
0aaaaa
0aaaab

#16539000
1aaaad
b1010001 aaaaf

#16560000
0aaaad

#16580000
1aaaad
0aaaae
b1010010 aaaaf

#16600000
1aaaaa
1aaaab
b1010011 aaaac

#16601000
0aaaad

#16700000
0aaaaa
0aaaab
1aaaae

#16800000
1aaaaa
1aaaab
b1010100 aaaac

#16900000
0aaaaa
0aaaab

#17000000
1aaaaa
1aaaab
b1010101 aaaac

#17021000
1aaaad
b1010011 aaaaf

#17042000
0aaaad

#17062000
1aaaad
b1010100 aaaaf

#17083000
0aaaad

#17100000
0aaaaa
0aaaab

#17103000
1aaaad
0aaaae
b1010101 aaaaf

#17124000
0aaaad

#17200000
1aaaaa
1aaaab
b1010110 aaaac

#17300000
0aaaaa
0aaaab
1aaaae

#17400000
1aaaaa
1aaaab
b1010111 aaaac

#17500000
0aaaaa
0aaaab

#17544000
1aaaad
b1010110 aaaaf

#17565000
0aaaad

#17585000
1aaaad
0aaaae
b1010111 aaaaf

#17600000
1aaaaa
1aaaab
b1011000 aaaac

#17606000
0aaaad

#17700000
0aaaaa
0aaaab
1aaaae

#17800000
1aaaaa
1aaaab
b1011001 aaaac

#17900000
0aaaaa
0aaaab

#18000000
1aaaaa
1aaaab
b1011010 aaaac

#18026000
1aaaad
b1011000 aaaaf

#18047000
0aaaad

#18067000
1aaaad
b1011001 aaaaf

#18088000
0aaaad

#18100000
0aaaaa
0aaaab

#18108000
1aaaad
0aaaae
b1011010 aaaaf

#18129000
0aaaad

#18200000
1aaaaa
1aaaab
b1011011 aaaac

#18300000
0aaaaa
0aaaab
1aaaae

#18400000
1aaaaa
1aaaab
b1011100 aaaac

#18500000
0aaaaa
0aaaab

#18549000
1aaaad
b1011011 aaaaf

#18570000
0aaaad

#18590000
1aaaad
0aaaae
b1011100 aaaaf

#18600000
1aaaaa
1aaaab
b1011101 aaaac

#18611000
0aaaad

#18700000
0aaaaa
0aaaab
1aaaae

#18800000
1aaaaa
1aaaab
b1011110 aaaac

#18900000
0aaaaa
0aaaab

#19000000
1aaaaa
1aaaab
b1011111 aaaac

#19031000
1aaaad
b1011101 aaaaf

#19052000
0aaaad

#19072000
1aaaad
b1011110 aaaaf

#19093000
0aaaad

#19100000
0aaaaa
0aaaab

#19113000
1aaaad
0aaaae
b1011111 aaaaf

#19134000
0aaaad

#19200000
1aaaaa
1aaaab
b1100000 aaaac

#19300000
0aaaaa
0aaaab
1aaaae

#19400000
1aaaaa
1aaaab
b1100001 aaaac

#19500000
0aaaaa
0aaaab

#19554000
1aaaad
b1100000 aaaaf

#19575000
0aaaad

#19595000
1aaaad
0aaaae
b1100001 aaaaf

#19600000
1aaaaa
1aaaab
b1100010 aaaac

#19616000
0aaaad

#19700000
0aaaaa
0aaaab
1aaaae

#19800000
1aaaaa
1aaaab
b1100011 aaaac

#19900000
0aaaaa
0aaaab

#20000000
1aaaaa
1aaaab
b1100100 aaaac

#20036000
1aaaad
b1100010 aaaaf

#20057000
0aaaad

#20077000
1aaaad
b1100011 aaaaf

#20098000
0aaaad

#20100000
0aaaaa
0aaaab

#20118000
1aaaad
0aaaae
b1100100 aaaaf

#20139000
0aaaad

#20200000
1aaaaa
1aaaab
b1100101 aaaac

#20300000
0aaaaa
0aaaab
1aaaae

#20400000
1aaaaa
1aaaab
b1100110 aaaac

#20500000
0aaaaa
0aaaab

#20559000
1aaaad
b1100101 aaaaf

#20580000
0aaaad

#20600000
1aaaaa
1aaaab
b1100111 aaaac
1aaaad
0aaaae
b1100110 aaaaf

#20621000
0aaaad

#20700000
0aaaaa
0aaaab
1aaaae

#20800000
1aaaaa
1aaaab
b1101000 aaaac

#20900000
0aaaaa
0aaaab

#21000000
1aaaaa
1aaaab
b1101001 aaaac

#21041000
1aaaad
b1100111 aaaaf

#21062000
0aaaad

#21082000
1aaaad
b1101000 aaaaf

#21100000
0aaaaa
0aaaab
0aaaae
b1101001 aaaaf

#21103000
0aaaad

#21200000
1aaaaa
1aaaab
b1101010 aaaac

#21300000
0aaaaa
0aaaab
1aaaae

#21400000
1aaaaa
1aaaab
b1101011 aaaac

#21500000
0aaaaa
0aaaab

#21523000
1aaaad
b1101010 aaaaf

#21544000
0aaaad

#21564000
1aaaad
0aaaae
b1101011 aaaaf

#21585000
0aaaad

#21600000
1aaaaa
1aaaab
b1101100 aaaac

#21700000
0aaaaa
0aaaab
1aaaae

#21800000
1aaaaa
1aaaab
b1101101 aaaac

#21900000
0aaaaa
0aaaab

#22000000
1aaaaa
1aaaab
b1101110 aaaac

#22005000
1aaaad
b1101100 aaaaf

#22026000
0aaaad

#22046000
1aaaad
b1101101 aaaaf

#22067000
0aaaad

#22087000
1aaaad
0aaaae
b1101110 aaaaf

#22100000
0aaaaa
0aaaab

#22108000
0aaaad

#22200000
1aaaaa
1aaaab
b1101111 aaaac

#22300000
0aaaaa
0aaaab
1aaaae

#22400000
1aaaaa
1aaaab
b1110000 aaaac

#22500000
0aaaaa
0aaaab

#22528000
1aaaad
b1101111 aaaaf

#22549000
0aaaad

#22569000
1aaaad
0aaaae
b1110000 aaaaf

#22590000
0aaaad

#22600000
1aaaaa
1aaaab
b1110001 aaaac

#22700000
0aaaaa
0aaaab
1aaaae

#22800000
1aaaaa
1aaaab
b1110010 aaaac

#22900000
0aaaaa
0aaaab

#23000000
1aaaaa
1aaaab
b1110011 aaaac

#23010000
1aaaad
b1110001 aaaaf

#23031000
0aaaad

#23051000
1aaaad
b1110010 aaaaf

#23072000
0aaaad

#23092000
1aaaad
0aaaae
b1110011 aaaaf

#23100000
0aaaaa
0aaaab

#23113000
0aaaad

#23200000
1aaaaa
1aaaab
b1110100 aaaac

#23300000
0aaaaa
0aaaab
1aaaae

#23400000
1aaaaa
1aaaab
b1110101 aaaac

#23500000
0aaaaa
0aaaab

#23533000
1aaaad
b1110100 aaaaf

#23554000
0aaaad

#23574000
1aaaad
0aaaae
b1110101 aaaaf

#23595000
0aaaad

#23600000
1aaaaa
1aaaab
b1110110 aaaac

#23700000
0aaaaa
0aaaab
1aaaae

#23800000
1aaaaa
1aaaab
b1110111 aaaac

#23900000
0aaaaa
0aaaab

#24000000
1aaaaa
1aaaab
b1111000 aaaac

#24015000
1aaaad
b1110110 aaaaf

#24036000
0aaaad

#24056000
1aaaad
b1110111 aaaaf

#24077000
0aaaad

#24097000
1aaaad
0aaaae
b1111000 aaaaf

#24100000
0aaaaa
0aaaab

#24118000
0aaaad

#24200000
1aaaaa
1aaaab
b1111001 aaaac

#24300000
0aaaaa
0aaaab
1aaaae

#24400000
1aaaaa
1aaaab
b1111010 aaaac

#24500000
0aaaaa
0aaaab

#24538000
1aaaad
b1111001 aaaaf

#24559000
0aaaad

#24579000
1aaaad
0aaaae
b1111010 aaaaf

#24600000
1aaaaa
1aaaab
b1111011 aaaac
0aaaad

#24700000
0aaaaa
0aaaab
1aaaae

#24800000
1aaaaa
1aaaab
b1111100 aaaac

#24900000
0aaaaa
0aaaab

#25000000
1aaaaa
1aaaab
b1111101 aaaac

#25020000
1aaaad
b1111011 aaaaf

#25041000
0aaaad

#25061000
1aaaad
b1111100 aaaaf

#25082000
0aaaad

#25100000
0aaaaa
0aaaab

#25102000
1aaaad
0aaaae
b1111101 aaaaf

#25123000
0aaaad

#25200000
1aaaaa
1aaaab
b1111110 aaaac

#25300000
0aaaaa
0aaaab
1aaaae

#25400000
1aaaaa
1aaaab
b1111111 aaaac

#25500000
0aaaaa
0aaaab

#25543000
1aaaad
b1111110 aaaaf

#25564000
0aaaad

#25584000
1aaaad
0aaaae
b1111111 aaaaf

#25600000
1aaaaa
1aaaab
b10000000 aaaac

#25605000
0aaaad

#25700000
0aaaaa
0aaaab
1aaaae

#25800000
1aaaaa
1aaaab
b10000001 aaaac

#25900000
0aaaaa
0aaaab

#26000000
1aaaaa
1aaaab
b10000010 aaaac

#26025000
1aaaad
b10000000 aaaaf

#26046000
0aaaad

#26066000
1aaaad
b10000001 aaaaf

#26087000
0aaaad

#26100000
0aaaaa
0aaaab

#26107000
1aaaad
0aaaae
b10000010 aaaaf

#26128000
0aaaad

#26200000
1aaaaa
1aaaab
b10000011 aaaac

#26300000
0aaaaa
0aaaab
1aaaae

#26400000
1aaaaa
1aaaab
b10000100 aaaac

#26500000
0aaaaa
0aaaab

#26548000
1aaaad
b10000011 aaaaf

#26569000
0aaaad

#26589000
1aaaad
0aaaae
b10000100 aaaaf

#26600000
1aaaaa
1aaaab
b10000101 aaaac

#26610000
0aaaad

#26700000
0aaaaa
0aaaab
1aaaae

#26800000
1aaaaa
1aaaab
b10000110 aaaac

#26900000
0aaaaa
0aaaab

#27000000
1aaaaa
1aaaab
b10000111 aaaac

#27030000
1aaaad
b10000101 aaaaf

#27051000
0aaaad

#27071000
1aaaad
b10000110 aaaaf

#27092000
0aaaad

#27100000
0aaaaa
0aaaab

#27112000
1aaaad
0aaaae
b10000111 aaaaf

#27133000
0aaaad

#27200000
1aaaaa
1aaaab
b10001000 aaaac

#27300000
0aaaaa
0aaaab
1aaaae

#27400000
1aaaaa
1aaaab
b10001001 aaaac

#27500000
0aaaaa
0aaaab

#27553000
1aaaad
b10001000 aaaaf

#27574000
0aaaad

#27594000
1aaaad
0aaaae
b10001001 aaaaf

#27600000
1aaaaa
1aaaab
b10001010 aaaac

#27615000
0aaaad

#27700000
0aaaaa
0aaaab
1aaaae

#27800000
1aaaaa
1aaaab
b10001011 aaaac

#27900000
0aaaaa
0aaaab

#28000000
1aaaaa
1aaaab
b10001100 aaaac

#28035000
1aaaad
b10001010 aaaaf

#28056000
0aaaad

#28076000
1aaaad
b10001011 aaaaf

#28097000
0aaaad

#28100000
0aaaaa
0aaaab

#28117000
1aaaad
0aaaae
b10001100 aaaaf

#28138000
0aaaad

#28200000
1aaaaa
1aaaab
b10001101 aaaac

#28300000
0aaaaa
0aaaab
1aaaae

#28400000
1aaaaa
1aaaab
b10001110 aaaac

#28500000
0aaaaa
0aaaab

#28558000
1aaaad
b10001101 aaaaf

#28579000
0aaaad

#28599000
1aaaad
0aaaae
b10001110 aaaaf

#28600000
1aaaaa
1aaaab
b10001111 aaaac

#28620000
0aaaad

#28700000
0aaaaa
0aaaab
1aaaae

#28800000
1aaaaa
1aaaab
b10010000 aaaac

#28900000
0aaaaa
0aaaab

#29000000
1aaaaa
1aaaab
b10010001 aaaac

#29040000
1aaaad
b10001111 aaaaf

#29061000
0aaaad

#29081000
1aaaad
b10010000 aaaaf

#29100000
0aaaaa
0aaaab
0aaaae
b10010001 aaaaf

#29102000
0aaaad

#29200000
1aaaaa
1aaaab
b10010010 aaaac

#29300000
0aaaaa
0aaaab
1aaaae

#29400000
1aaaaa
1aaaab
b10010011 aaaac

#29500000
0aaaaa
0aaaab

#29522000
1aaaad
b10010010 aaaaf

#29543000
0aaaad

#29563000
1aaaad
0aaaae
b10010011 aaaaf

#29584000
0aaaad

#29600000
1aaaaa
1aaaab
b10010100 aaaac

#29700000
0aaaaa
0aaaab
1aaaae

#29800000
1aaaaa
1aaaab
b10010101 aaaac

#29900000
0aaaaa
0aaaab

#30000000
1aaaaa
1aaaab
b10010110 aaaac

#30004000
1aaaad
b10010100 aaaaf

#30025000
0aaaad

#30045000
1aaaad
b10010101 aaaaf

#30066000
0aaaad

#30086000
1aaaad
0aaaae
b10010110 aaaaf

#30100000
0aaaaa
0aaaab

#30107000
0aaaad

#30200000
1aaaaa
1aaaab
b10010111 aaaac

#30300000
0aaaaa
0aaaab
1aaaae

#30400000
1aaaaa
1aaaab
b10011000 aaaac

#30500000
0aaaaa
0aaaab

#30527000
1aaaad
b10010111 aaaaf

#30548000
0aaaad

#30568000
1aaaad
0aaaae
b10011000 aaaaf

#30589000
0aaaad

#30600000
1aaaaa
1aaaab
b10011001 aaaac

#30700000
0aaaaa
0aaaab
1aaaae

#30800000
1aaaaa
1aaaab
b10011010 aaaac

#30900000
0aaaaa
0aaaab

#31000000
1aaaaa
1aaaab
b10011011 aaaac

#31009000
1aaaad
b10011001 aaaaf

#31030000
0aaaad

#31050000
1aaaad
b10011010 aaaaf

#31071000
0aaaad

#31091000
1aaaad
0aaaae
b10011011 aaaaf

#31100000
0aaaaa
0aaaab

#31112000
0aaaad

#31200000
1aaaaa
1aaaab
b10011100 aaaac

#31300000
0aaaaa
0aaaab
1aaaae

#31400000
1aaaaa
1aaaab
b10011101 aaaac

#31500000
0aaaaa
0aaaab

#31532000
1aaaad
b10011100 aaaaf

#31553000
0aaaad

#31573000
1aaaad
0aaaae
b10011101 aaaaf

#31594000
0aaaad

#31600000
1aaaaa
1aaaab
b10011110 aaaac

#31700000
0aaaaa
0aaaab
1aaaae

#31800000
1aaaaa
1aaaab
b10011111 aaaac

#31900000
0aaaaa
0aaaab

#32000000
1aaaaa
1aaaab
b10100000 aaaac

#32014000
1aaaad
b10011110 aaaaf

#32035000
0aaaad

#32055000
1aaaad
b10011111 aaaaf

#32076000
0aaaad

#32096000
1aaaad
0aaaae
b10100000 aaaaf

#32100000
0aaaaa
0aaaab

#32117000
0aaaad

#32200000
1aaaaa
1aaaab
b10100001 aaaac

#32300000
0aaaaa
0aaaab
1aaaae

#32400000
1aaaaa
1aaaab
b10100010 aaaac

#32500000
0aaaaa
0aaaab

#32537000
1aaaad
b10100001 aaaaf

#32558000
0aaaad

#32578000
1aaaad
0aaaae
b10100010 aaaaf

#32599000
0aaaad

#32600000
1aaaaa
1aaaab
b10100011 aaaac

#32700000
0aaaaa
0aaaab
1aaaae

#32800000
1aaaaa
1aaaab
b10100100 aaaac

#32900000
0aaaaa
0aaaab

#33000000
1aaaaa
1aaaab
b10100101 aaaac

#33019000
1aaaad
b10100011 aaaaf

#33040000
0aaaad

#33060000
1aaaad
b10100100 aaaaf

#33081000
0aaaad

#33100000
0aaaaa
0aaaab

#33101000
1aaaad
0aaaae
b10100101 aaaaf

#33122000
0aaaad

#33200000
1aaaaa
1aaaab
b10100110 aaaac

#33300000
0aaaaa
0aaaab
1aaaae

#33400000
1aaaaa
1aaaab
b10100111 aaaac

#33500000
0aaaaa
0aaaab

#33542000
1aaaad
b10100110 aaaaf

#33563000
0aaaad

#33583000
1aaaad
0aaaae
b10100111 aaaaf

#33600000
1aaaaa
1aaaab
b10101000 aaaac

#33604000
0aaaad

#33700000
0aaaaa
0aaaab
1aaaae

#33800000
1aaaaa
1aaaab
b10101001 aaaac

#33900000
0aaaaa
0aaaab

#34000000
1aaaaa
1aaaab
b10101010 aaaac

#34024000
1aaaad
b10101000 aaaaf

#34045000
0aaaad

#34065000
1aaaad
b10101001 aaaaf

#34086000
0aaaad

#34100000
0aaaaa
0aaaab

#34106000
1aaaad
0aaaae
b10101010 aaaaf

#34127000
0aaaad

#34200000
1aaaaa
1aaaab
b10101011 aaaac

#34300000
0aaaaa
0aaaab
1aaaae

#34400000
1aaaaa
1aaaab
b10101100 aaaac

#34500000
0aaaaa
0aaaab

#34547000
1aaaad
b10101011 aaaaf

#34568000
0aaaad

#34588000
1aaaad
0aaaae
b10101100 aaaaf

#34600000
1aaaaa
1aaaab
b10101101 aaaac

#34609000
0aaaad

#34700000
0aaaaa
0aaaab
1aaaae

#34800000
1aaaaa
1aaaab
b10101110 aaaac

#34900000
0aaaaa
0aaaab

#35000000
1aaaaa
1aaaab
b10101111 aaaac

#35029000
1aaaad
b10101101 aaaaf

#35050000
0aaaad

#35070000
1aaaad
b10101110 aaaaf

#35091000
0aaaad

#35100000
0aaaaa
0aaaab

#35111000
1aaaad
0aaaae
b10101111 aaaaf

#35132000
0aaaad

#35200000
1aaaaa
1aaaab
b10110000 aaaac

#35300000
0aaaaa
0aaaab
1aaaae

#35400000
1aaaaa
1aaaab
b10110001 aaaac

#35500000
0aaaaa
0aaaab

#35552000
1aaaad
b10110000 aaaaf

#35573000
0aaaad

#35593000
1aaaad
0aaaae
b10110001 aaaaf

#35600000
1aaaaa
1aaaab
b10110010 aaaac

#35614000
0aaaad

