Projekt/Projekt/counter.vcd
$date
     Aug 28, 2017       23:39:21
$end

$version
 SystemC 2.3.1-Accellera --- Aug 27 2017 00:15:15
$end

$timescale
     1 sec
$end

$scope module SystemC $end
$var wire    1  aaaaa  clock       $end
$var wire    1  aaaab  reset       $end
$var wire    1  aaaac  enable       $end
$var wire    5  aaaad  hours [4:0]  $end
$var wire    6  aaaae  minutes [5:0]  $end
$upscope $end
$enddefinitions  $end

$comment
All initial values are dumped below at time 0 sec = 0 timescale units.
$end

$dumpvars
0aaaaa
0aaaab
0aaaac
b0 aaaad
b0 aaaae
$end

#1
1aaaaa

#2
0aaaaa

#3
1aaaaa

#4
0aaaaa

#5
1aaaaa

#6
0aaaaa

#7
1aaaaa

#8
0aaaaa

#9
1aaaaa

#10
0aaaaa
1aaaab

#11
1aaaaa

#12
0aaaaa

#13
1aaaaa

#14
0aaaaa

#15
1aaaaa

#16
0aaaaa

#17
1aaaaa

#18
0aaaaa

#19
1aaaaa

#20
0aaaaa

#21
1aaaaa

#22
0aaaaa

#23
1aaaaa

#24
0aaaaa

#25
1aaaaa

#26
0aaaaa

#27
1aaaaa

#28
0aaaaa

#29
1aaaaa

#30
0aaaaa
0aaaab

#31
1aaaaa

#32
0aaaaa

#33
1aaaaa

#34
0aaaaa

#35
1aaaaa

#36
0aaaaa

#37
1aaaaa

#38
0aaaaa

#39
1aaaaa

#40
0aaaaa
1aaaac

#41
1aaaaa
b1 aaaae

#42
0aaaaa

#43
1aaaaa
b10 aaaae

#44
0aaaaa

#45
1aaaaa
b11 aaaae

#46
0aaaaa

#47
1aaaaa
b100 aaaae

#48
0aaaaa

#49
1aaaaa
b101 aaaae

#50
0aaaaa

#51
1aaaaa
b110 aaaae

#52
0aaaaa

#53
1aaaaa
b111 aaaae

#54
0aaaaa

#55
1aaaaa
b1000 aaaae

#56
0aaaaa

#57
1aaaaa
b1001 aaaae

#58
0aaaaa

#59
1aaaaa
b1010 aaaae

#60
0aaaaa

#61
1aaaaa
b1011 aaaae

#62
0aaaaa

#63
1aaaaa
b1100 aaaae

#64
0aaaaa

#65
1aaaaa
b1101 aaaae

#66
0aaaaa

#67
1aaaaa
b1110 aaaae

#68
0aaaaa

#69
1aaaaa
b1111 aaaae

#70
0aaaaa

#71
1aaaaa
b10000 aaaae

#72
0aaaaa

#73
1aaaaa
b10001 aaaae

#74
0aaaaa

#75
1aaaaa
b10010 aaaae

#76
0aaaaa

#77
1aaaaa
b10011 aaaae

#78
0aaaaa

#79
1aaaaa
b10100 aaaae

#80
0aaaaa

#81
1aaaaa
b10101 aaaae

#82
0aaaaa

#83
1aaaaa
b10110 aaaae

#84
0aaaaa

#85
1aaaaa
b10111 aaaae

#86
0aaaaa

#87
1aaaaa
b11000 aaaae

#88
0aaaaa

#89
1aaaaa
b11001 aaaae

#90
0aaaaa

#91
1aaaaa
b11010 aaaae

#92
0aaaaa

#93
1aaaaa
b11011 aaaae

#94
0aaaaa

#95
1aaaaa
b11100 aaaae

#96
0aaaaa

#97
1aaaaa
b11101 aaaae

#98
0aaaaa

#99
1aaaaa
b11110 aaaae

#100
0aaaaa

#101
1aaaaa
b11111 aaaae

#102
0aaaaa

#103
1aaaaa
b100000 aaaae

#104
0aaaaa

#105
1aaaaa
b100001 aaaae

#106
0aaaaa

#107
1aaaaa
b100010 aaaae

#108
0aaaaa

#109
1aaaaa
b100011 aaaae

#110
0aaaaa

#111
1aaaaa
b100100 aaaae

#112
0aaaaa

#113
1aaaaa
b100101 aaaae

#114
0aaaaa

#115
1aaaaa
b100110 aaaae

#116
0aaaaa

#117
1aaaaa
b100111 aaaae

#118
0aaaaa

#119
1aaaaa
b101000 aaaae

#120
0aaaaa

#121
1aaaaa
b101001 aaaae

#122
0aaaaa

#123
1aaaaa
b101010 aaaae

#124
0aaaaa

#125
1aaaaa
b101011 aaaae

#126
0aaaaa

#127
1aaaaa
b101100 aaaae

#128
0aaaaa

#129
1aaaaa
b101101 aaaae

#130
0aaaaa

#131
1aaaaa
b101110 aaaae

#132
0aaaaa

#133
1aaaaa
b101111 aaaae

#134
0aaaaa

#135
1aaaaa
b110000 aaaae

#136
0aaaaa

#137
1aaaaa
b110001 aaaae

#138
0aaaaa

#139
1aaaaa
b110010 aaaae

#140
0aaaaa

#141
1aaaaa
b110011 aaaae

#142
0aaaaa

#143
1aaaaa
b110100 aaaae

#144
0aaaaa

#145
1aaaaa
b110101 aaaae

#146
0aaaaa

#147
1aaaaa
b110110 aaaae

#148
0aaaaa

#149
1aaaaa
b110111 aaaae

#150
0aaaaa

#151
1aaaaa
b111000 aaaae

#152
0aaaaa

#153
1aaaaa
b111001 aaaae

#154
0aaaaa

#155
1aaaaa
b111010 aaaae

#156
0aaaaa

#157
1aaaaa
b111011 aaaae

#158
0aaaaa

#159
1aaaaa
b1 aaaad
b0 aaaae

#160
0aaaaa

#161
1aaaaa
b1 aaaae

#162
0aaaaa

#163
1aaaaa
b10 aaaae

#164
0aaaaa

#165
1aaaaa
b11 aaaae

#166
0aaaaa

#167
1aaaaa
b100 aaaae

#168
0aaaaa

#169
1aaaaa
b101 aaaae

