Projekt/Projekt/Simulation.vcd
$date
     Sep 17, 2017       15:48:11
$end

$version
 SystemC 2.3.1-Accellera --- Aug 27 2017 00:15:15
$end

$timescale
     100 ms
$end

$scope module SystemC $end
$var wire    1  aaaaa  clk       $end
$var wire    5  aaaab  hours [4:0]  $end
$var wire    6  aaaac  minutes [5:0]  $end
$var wire    1  aaaad  el_outlet       $end
$upscope $end
$enddefinitions  $end

$comment
All initial values are dumped below at time 0 sec = 0 timescale units.
$end

$dumpvars
0aaaaa
b0 aaaab
b1 aaaac
0aaaad
$end

#10
1aaaaa
b10 aaaac

#15
0aaaaa

#20
1aaaaa
b11 aaaac

#25
0aaaaa

#30
1aaaaa
b100 aaaac

#35
0aaaaa

#40
1aaaaa
b101 aaaac

#45
0aaaaa

#50
1aaaaa
b110 aaaac

#55
0aaaaa

#60
1aaaaa
b111 aaaac

#65
0aaaaa

#70
1aaaaa
b1000 aaaac

#75
0aaaaa

#80
1aaaaa
b1001 aaaac

#85
0aaaaa

#90
1aaaaa
b1010 aaaac

#95
0aaaaa

#100
1aaaaa
b1011 aaaac

#105
0aaaaa

#110
1aaaaa
b1100 aaaac

#115
0aaaaa

#120
1aaaaa
b1101 aaaac

#125
0aaaaa

#130
1aaaaa
b1110 aaaac

#135
0aaaaa

#140
1aaaaa
b1111 aaaac

#145
0aaaaa

#150
1aaaaa
b10000 aaaac

#155
0aaaaa

#160
1aaaaa
b10001 aaaac

#165
0aaaaa

#170
1aaaaa
b10010 aaaac

#175
0aaaaa

#180
1aaaaa
b10011 aaaac

#185
0aaaaa

#190
1aaaaa
b10100 aaaac

#195
0aaaaa

#200
1aaaaa
b10101 aaaac

#205
0aaaaa

#210
1aaaaa
b10110 aaaac

#215
0aaaaa

#220
1aaaaa
b10111 aaaac

#225
0aaaaa

#230
1aaaaa
b11000 aaaac

#235
0aaaaa

#240
1aaaaa
b11001 aaaac

#245
0aaaaa

#250
1aaaaa
b11010 aaaac

#255
0aaaaa

#260
1aaaaa
b11011 aaaac

#265
0aaaaa

#270
1aaaaa
b11100 aaaac

#275
0aaaaa

#280
1aaaaa
b11101 aaaac

#285
0aaaaa

#290
1aaaaa
b11110 aaaac

#295
0aaaaa

#300
1aaaaa
b11111 aaaac

#305
0aaaaa

#310
1aaaaa
b100000 aaaac

#315
0aaaaa

#320
1aaaaa
b100001 aaaac

#325
0aaaaa

#330
1aaaaa
b100010 aaaac

#335
0aaaaa

#340
1aaaaa
b100011 aaaac

#345
0aaaaa

#350
1aaaaa
b100100 aaaac

#355
0aaaaa

#360
1aaaaa
b100101 aaaac

#365
0aaaaa

#370
1aaaaa
b100110 aaaac

#375
0aaaaa

#380
1aaaaa
b100111 aaaac

#385
0aaaaa

#390
1aaaaa
b101000 aaaac

#395
0aaaaa

#400
1aaaaa
b101001 aaaac

#405
0aaaaa

#410
1aaaaa
b101010 aaaac

#415
0aaaaa

#420
1aaaaa
b101011 aaaac

#425
0aaaaa

#430
1aaaaa
b101100 aaaac

#435
0aaaaa

#440
1aaaaa
b101101 aaaac

#445
0aaaaa

#450
1aaaaa
b101110 aaaac

#455
0aaaaa

#460
1aaaaa
b101111 aaaac

#465
0aaaaa

#470
1aaaaa
b110000 aaaac

#475
0aaaaa

#480
1aaaaa
b110001 aaaac

#485
0aaaaa

#490
1aaaaa
b110010 aaaac

#495
0aaaaa

#500
1aaaaa
b110011 aaaac

#505
0aaaaa

#510
1aaaaa
b110100 aaaac

#515
0aaaaa

#520
1aaaaa
b110101 aaaac

#525
0aaaaa

#530
1aaaaa
b110110 aaaac

#535
0aaaaa

#540
1aaaaa
b110111 aaaac

#545
0aaaaa

#550
1aaaaa
b111000 aaaac

#555
0aaaaa

#560
1aaaaa
b111001 aaaac

#565
0aaaaa

#570
1aaaaa
b111010 aaaac

#575
0aaaaa

#580
1aaaaa
b111011 aaaac

#585
0aaaaa

#590
1aaaaa
b1 aaaab
b0 aaaac

#595
0aaaaa

#600
1aaaaa
b1 aaaac

#605
0aaaaa

#610
1aaaaa
b10 aaaac

#615
0aaaaa

#620
1aaaaa
b11 aaaac

#625
0aaaaa

#630
1aaaaa
b100 aaaac

#635
0aaaaa

#640
1aaaaa
b101 aaaac

#645
0aaaaa

#650
1aaaaa
b110 aaaac

#655
0aaaaa

#660
1aaaaa
b111 aaaac

#665
0aaaaa

#670
1aaaaa
b1000 aaaac

#675
0aaaaa

#680
1aaaaa
b1001 aaaac

#685
0aaaaa

#690
1aaaaa
b1010 aaaac

#695
0aaaaa

#700
1aaaaa
b1011 aaaac

#705
0aaaaa

#710
1aaaaa
b1100 aaaac

#715
0aaaaa

#720
1aaaaa
b1101 aaaac

#725
0aaaaa

#730
1aaaaa
b1110 aaaac

#735
0aaaaa

#740
1aaaaa
b1111 aaaac

#745
0aaaaa

#750
1aaaaa
b10000 aaaac

#755
0aaaaa

#760
1aaaaa
b10001 aaaac

#765
0aaaaa

#770
1aaaaa
b10010 aaaac

#775
0aaaaa

#780
1aaaaa
b10011 aaaac

#785
0aaaaa

#790
1aaaaa
b10100 aaaac

#795
0aaaaa

#800
1aaaaa
b10101 aaaac

#805
0aaaaa

#810
1aaaaa
b10110 aaaac

#815
0aaaaa

#820
1aaaaa
b10111 aaaac

#825
0aaaaa

#830
1aaaaa
b11000 aaaac

#835
0aaaaa

#840
1aaaaa
b11001 aaaac

#845
0aaaaa

#850
1aaaaa
b11010 aaaac

#855
0aaaaa

#860
1aaaaa
b11011 aaaac

#865
0aaaaa

#870
1aaaaa
b11100 aaaac

#875
0aaaaa

#880
1aaaaa
b11101 aaaac

#885
0aaaaa

#890
1aaaaa
b11110 aaaac

#895
0aaaaa

#900
1aaaaa
b11111 aaaac

#905
0aaaaa

#910
1aaaaa
b100000 aaaac

#915
0aaaaa

#920
1aaaaa
b100001 aaaac

#925
0aaaaa

#930
1aaaaa
b100010 aaaac

#935
0aaaaa

#940
1aaaaa
b100011 aaaac

#945
0aaaaa

#950
1aaaaa
b100100 aaaac

#955
0aaaaa

#960
1aaaaa
b100101 aaaac

#965
0aaaaa

#970
1aaaaa
b100110 aaaac

#975
0aaaaa

#980
1aaaaa
b100111 aaaac

#985
0aaaaa

#990
1aaaaa
b101000 aaaac

#995
0aaaaa

#1000
1aaaaa
b101001 aaaac

#1005
0aaaaa

#1010
1aaaaa
b101010 aaaac

#1015
0aaaaa

#1020
1aaaaa
b101011 aaaac

#1025
0aaaaa

#1030
1aaaaa
b101100 aaaac

#1035
0aaaaa

#1040
1aaaaa
b101101 aaaac

#1045
0aaaaa

#1050
1aaaaa
b101110 aaaac

#1055
0aaaaa

#1060
1aaaaa
b101111 aaaac

#1065
0aaaaa

#1070
1aaaaa
b110000 aaaac

#1075
0aaaaa

#1080
1aaaaa
b110001 aaaac

#1085
0aaaaa

#1090
1aaaaa
b110010 aaaac

#1095
0aaaaa

#1100
1aaaaa
b110011 aaaac

#1105
0aaaaa

#1110
1aaaaa
b110100 aaaac

#1115
0aaaaa

#1120
1aaaaa
b110101 aaaac

#1125
0aaaaa

#1130
1aaaaa
b110110 aaaac

#1135
0aaaaa

#1140
1aaaaa
b110111 aaaac

#1145
0aaaaa

#1150
1aaaaa
b111000 aaaac

#1155
0aaaaa

#1160
1aaaaa
b111001 aaaac

#1165
0aaaaa

#1170
1aaaaa
b111010 aaaac

#1175
0aaaaa

#1180
1aaaaa
b111011 aaaac

#1185
0aaaaa

#1190
1aaaaa
b10 aaaab
b0 aaaac

#1195
0aaaaa

#1200
1aaaaa
b1 aaaac

#1205
0aaaaa

#1210
1aaaaa
b10 aaaac

#1215
0aaaaa

#1220
1aaaaa
b11 aaaac

#1225
0aaaaa

#1230
1aaaaa
b100 aaaac

#1235
0aaaaa

#1240
1aaaaa
b101 aaaac

#1245
0aaaaa

#1250
1aaaaa
b110 aaaac

#1255
0aaaaa

#1260
1aaaaa
b111 aaaac

#1265
0aaaaa

#1270
1aaaaa
b1000 aaaac

#1275
0aaaaa

#1280
1aaaaa
b1001 aaaac

#1285
0aaaaa

#1290
1aaaaa
b1010 aaaac

#1295
0aaaaa

#1300
1aaaaa
b1011 aaaac

#1305
0aaaaa

#1310
1aaaaa
b1100 aaaac

#1315
0aaaaa

#1320
1aaaaa
b1101 aaaac

#1325
0aaaaa

#1330
1aaaaa
b1110 aaaac

#1335
0aaaaa

#1340
1aaaaa
b1111 aaaac

#1345
0aaaaa

#1350
1aaaaa
b10000 aaaac

#1355
0aaaaa

#1360
1aaaaa
b10001 aaaac

#1365
0aaaaa

#1370
1aaaaa
b10010 aaaac

#1375
0aaaaa

#1380
1aaaaa
b10011 aaaac

#1385
0aaaaa

#1390
1aaaaa
b10100 aaaac

#1395
0aaaaa

#1400
1aaaaa
b10101 aaaac

#1405
0aaaaa

#1410
1aaaaa
b10110 aaaac

#1415
0aaaaa

#1420
1aaaaa
b10111 aaaac

#1425
0aaaaa

#1430
1aaaaa
b11000 aaaac

#1435
0aaaaa

#1440
1aaaaa
b11001 aaaac

#1445
0aaaaa

#1450
1aaaaa
b11010 aaaac

#1455
0aaaaa

#1460
1aaaaa
b11011 aaaac

#1465
0aaaaa

#1470
1aaaaa
b11100 aaaac

#1475
0aaaaa

#1480
1aaaaa
b11101 aaaac

#1485
0aaaaa

#1490
1aaaaa
b11110 aaaac

#1495
0aaaaa

#1500
1aaaaa
b11111 aaaac

#1505
0aaaaa

#1510
1aaaaa
b100000 aaaac

#1515
0aaaaa

#1520
1aaaaa
b100001 aaaac

#1525
0aaaaa

#1530
1aaaaa
b100010 aaaac

#1535
0aaaaa

#1540
1aaaaa
b100011 aaaac

#1545
0aaaaa

#1550
1aaaaa
b100100 aaaac

#1555
0aaaaa

#1560
1aaaaa
b100101 aaaac

#1565
0aaaaa

#1570
1aaaaa
b100110 aaaac

#1575
0aaaaa

#1580
1aaaaa
b100111 aaaac

#1585
0aaaaa

#1590
1aaaaa
b101000 aaaac

#1595
0aaaaa

#1600
1aaaaa
b101001 aaaac

#1605
0aaaaa

#1610
1aaaaa
b101010 aaaac

#1615
0aaaaa

#1620
1aaaaa
b101011 aaaac

#1625
0aaaaa

#1630
1aaaaa
b101100 aaaac

#1635
0aaaaa

#1640
1aaaaa
b101101 aaaac

#1645
0aaaaa

#1650
1aaaaa
b101110 aaaac

#1655
0aaaaa

#1660
1aaaaa
b101111 aaaac

#1665
0aaaaa

#1670
1aaaaa
b110000 aaaac

#1675
0aaaaa

#1680
1aaaaa
b110001 aaaac

#1685
0aaaaa

#1690
1aaaaa
b110010 aaaac

#1695
0aaaaa

#1700
1aaaaa
b110011 aaaac

#1705
0aaaaa

#1710
1aaaaa
b110100 aaaac

#1715
0aaaaa

#1720
1aaaaa
b110101 aaaac

#1725
0aaaaa

#1730
1aaaaa
b110110 aaaac

#1735
0aaaaa

#1740
1aaaaa
b110111 aaaac

#1745
0aaaaa

#1750
1aaaaa
b111000 aaaac

#1755
0aaaaa

#1760
1aaaaa
b111001 aaaac

#1765
0aaaaa

#1770
1aaaaa
b111010 aaaac

#1775
0aaaaa

#1780
1aaaaa
b111011 aaaac

#1785
0aaaaa

#1790
1aaaaa
b11 aaaab
b0 aaaac

#1795
0aaaaa

#1800
1aaaaa
b1 aaaac

#1805
0aaaaa

#1810
1aaaaa
b10 aaaac

#1815
0aaaaa

#1820
1aaaaa
b11 aaaac

#1825
0aaaaa

#1830
1aaaaa
b100 aaaac

#1835
0aaaaa

#1840
1aaaaa
b101 aaaac

#1845
0aaaaa

#1850
1aaaaa
b110 aaaac

#1855
0aaaaa

#1860
1aaaaa
b111 aaaac

#1865
0aaaaa

#1870
1aaaaa
b1000 aaaac

#1875
0aaaaa

#1880
1aaaaa
b1001 aaaac

#1885
0aaaaa

#1890
1aaaaa
b1010 aaaac

#1895
0aaaaa

#1900
1aaaaa
b1011 aaaac

#1905
0aaaaa

#1910
1aaaaa
b1100 aaaac

#1915
0aaaaa

#1920
1aaaaa
b1101 aaaac

#1925
0aaaaa

#1930
1aaaaa
b1110 aaaac

#1935
0aaaaa

#1940
1aaaaa
b1111 aaaac

#1945
0aaaaa

#1950
1aaaaa
b10000 aaaac

#1955
0aaaaa

#1960
1aaaaa
b10001 aaaac

#1965
0aaaaa

#1970
1aaaaa
b10010 aaaac

#1975
0aaaaa

#1980
1aaaaa
b10011 aaaac

#1985
0aaaaa

#1990
1aaaaa
b10100 aaaac

#1995
0aaaaa

#2000
1aaaaa
b10101 aaaac

#2005
0aaaaa

#2010
1aaaaa
b10110 aaaac

#2015
0aaaaa

#2020
1aaaaa
b10111 aaaac

#2025
0aaaaa

#2030
1aaaaa
b11000 aaaac

#2035
0aaaaa

#2040
1aaaaa
b11001 aaaac

#2045
0aaaaa

#2050
1aaaaa
b11010 aaaac

#2055
0aaaaa

#2060
1aaaaa
b11011 aaaac

#2065
0aaaaa

#2070
1aaaaa
b11100 aaaac

#2075
0aaaaa

#2080
1aaaaa
b11101 aaaac

#2085
0aaaaa

#2090
1aaaaa
b11110 aaaac

#2095
0aaaaa

#2100
1aaaaa
b11111 aaaac

#2105
0aaaaa

#2110
1aaaaa
b100000 aaaac

#2115
0aaaaa

#2120
1aaaaa
b100001 aaaac

#2125
0aaaaa

#2130
1aaaaa
b100010 aaaac

#2135
0aaaaa

#2140
1aaaaa
b100011 aaaac

#2145
0aaaaa

#2150
1aaaaa
b100100 aaaac

#2155
0aaaaa

#2160
1aaaaa
b100101 aaaac

#2165
0aaaaa

#2170
1aaaaa
b100110 aaaac

#2175
0aaaaa

#2180
1aaaaa
b100111 aaaac

#2185
0aaaaa

#2190
1aaaaa
b101000 aaaac

#2195
0aaaaa

#2200
1aaaaa
b101001 aaaac

#2205
0aaaaa

#2210
1aaaaa
b101010 aaaac

#2215
0aaaaa

#2220
1aaaaa
b101011 aaaac

#2225
0aaaaa

#2230
1aaaaa
b101100 aaaac

#2235
0aaaaa

#2240
1aaaaa
b101101 aaaac

#2245
0aaaaa

#2250
1aaaaa
b101110 aaaac

#2255
0aaaaa

#2260
1aaaaa
b101111 aaaac

#2265
0aaaaa

#2270
1aaaaa
b110000 aaaac

#2275
0aaaaa

#2280
1aaaaa
b110001 aaaac

#2285
0aaaaa

#2290
1aaaaa
b110010 aaaac

#2295
0aaaaa

#2300
1aaaaa
b110011 aaaac

#2305
0aaaaa

#2310
1aaaaa
b110100 aaaac

#2315
0aaaaa

#2320
1aaaaa
b110101 aaaac

#2325
0aaaaa

#2330
1aaaaa
b110110 aaaac

#2335
0aaaaa

#2340
1aaaaa
b110111 aaaac

#2345
0aaaaa

#2350
1aaaaa
b111000 aaaac

#2355
0aaaaa

#2360
1aaaaa
b111001 aaaac

#2365
0aaaaa

#2370
1aaaaa
b111010 aaaac

#2375
0aaaaa

#2380
1aaaaa
b111011 aaaac

#2385
0aaaaa

#2390
1aaaaa
b100 aaaab
b0 aaaac

#2395
0aaaaa

#2400
1aaaaa
b1 aaaac

#2405
0aaaaa

#2410
1aaaaa
b10 aaaac

#2415
0aaaaa

#2420
1aaaaa
b11 aaaac

#2425
0aaaaa

#2430
1aaaaa
b100 aaaac

#2435
0aaaaa

#2440
1aaaaa
b101 aaaac

#2445
0aaaaa

#2450
1aaaaa
b110 aaaac

#2455
0aaaaa

#2460
1aaaaa
b111 aaaac

#2465
0aaaaa

#2470
1aaaaa
b1000 aaaac

#2475
0aaaaa

#2480
1aaaaa
b1001 aaaac

#2485
0aaaaa

#2490
1aaaaa
b1010 aaaac

#2495
0aaaaa

#2500
1aaaaa
b1011 aaaac

#2505
0aaaaa

#2510
1aaaaa
b1100 aaaac

#2515
0aaaaa

#2520
1aaaaa
b1101 aaaac

#2525
0aaaaa

#2530
1aaaaa
b1110 aaaac

#2535
0aaaaa

#2540
1aaaaa
b1111 aaaac

#2545
0aaaaa

#2550
1aaaaa
b10000 aaaac

#2555
0aaaaa

#2560
1aaaaa
b10001 aaaac

#2565
0aaaaa

#2570
1aaaaa
b10010 aaaac

#2575
0aaaaa

#2580
1aaaaa
b10011 aaaac

#2585
0aaaaa

#2590
1aaaaa
b10100 aaaac

#2595
0aaaaa

#2600
1aaaaa
b10101 aaaac

#2605
0aaaaa

#2610
1aaaaa
b10110 aaaac

#2615
0aaaaa

#2620
1aaaaa
b10111 aaaac

#2625
0aaaaa

#2630
1aaaaa
b11000 aaaac

#2635
0aaaaa

#2640
1aaaaa
b11001 aaaac

#2645
0aaaaa

#2650
1aaaaa
b11010 aaaac

#2655
0aaaaa

#2660
1aaaaa
b11011 aaaac

#2665
0aaaaa

#2670
1aaaaa
b11100 aaaac

#2675
0aaaaa

#2680
1aaaaa
b11101 aaaac

#2685
0aaaaa

#2690
1aaaaa
b11110 aaaac

#2695
0aaaaa

#2700
1aaaaa
b11111 aaaac

#2705
0aaaaa

#2710
1aaaaa
b100000 aaaac

#2715
0aaaaa

#2720
1aaaaa
b100001 aaaac

#2725
0aaaaa

#2730
1aaaaa
b100010 aaaac

#2735
0aaaaa

#2740
1aaaaa
b100011 aaaac

#2745
0aaaaa

#2750
1aaaaa
b100100 aaaac

#2755
0aaaaa

#2760
1aaaaa
b100101 aaaac

#2765
0aaaaa

#2770
1aaaaa
b100110 aaaac

#2775
0aaaaa

#2780
1aaaaa
b100111 aaaac

#2785
0aaaaa

#2790
1aaaaa
b101000 aaaac

#2795
0aaaaa

#2800
1aaaaa
b101001 aaaac

#2805
0aaaaa

#2810
1aaaaa
b101010 aaaac

#2815
0aaaaa

#2820
1aaaaa
b101011 aaaac

#2825
0aaaaa

#2830
1aaaaa
b101100 aaaac

#2835
0aaaaa

#2840
1aaaaa
b101101 aaaac

#2845
0aaaaa

#2850
1aaaaa
b101110 aaaac

#2855
0aaaaa

#2860
1aaaaa
b101111 aaaac

#2865
0aaaaa

#2870
1aaaaa
b110000 aaaac

#2875
0aaaaa

#2880
1aaaaa
b110001 aaaac

#2885
0aaaaa

#2890
1aaaaa
b110010 aaaac

#2895
0aaaaa

#2900
1aaaaa
b110011 aaaac

#2905
0aaaaa

#2910
1aaaaa
b110100 aaaac

#2915
0aaaaa

#2920
1aaaaa
b110101 aaaac

#2925
0aaaaa

#2930
1aaaaa
b110110 aaaac

#2935
0aaaaa

#2940
1aaaaa
b110111 aaaac

#2945
0aaaaa

#2950
1aaaaa
b111000 aaaac

#2955
0aaaaa

#2960
1aaaaa
b111001 aaaac

#2965
0aaaaa

#2970
1aaaaa
b111010 aaaac

#2975
0aaaaa

#2980
1aaaaa
b111011 aaaac

#2985
0aaaaa

#2990
1aaaaa
b101 aaaab
b0 aaaac

#2995
0aaaaa

#3000
1aaaaa
b1 aaaac

#3005
0aaaaa

#3010
1aaaaa
b10 aaaac

#3015
0aaaaa

#3020
1aaaaa
b11 aaaac

#3025
0aaaaa

#3030
1aaaaa
b100 aaaac

#3035
0aaaaa

#3040
1aaaaa
b101 aaaac

#3045
0aaaaa

#3050
1aaaaa
b110 aaaac

#3055
0aaaaa

#3060
1aaaaa
b111 aaaac

#3065
0aaaaa

#3070
1aaaaa
b1000 aaaac

#3075
0aaaaa

#3080
1aaaaa
b1001 aaaac

#3085
0aaaaa

#3090
1aaaaa
b1010 aaaac

#3095
0aaaaa

#3100
1aaaaa
b1011 aaaac

#3105
0aaaaa

#3110
1aaaaa
b1100 aaaac

#3115
0aaaaa

#3120
1aaaaa
b1101 aaaac

#3125
0aaaaa

#3130
1aaaaa
b1110 aaaac

#3135
0aaaaa

#3140
1aaaaa
b1111 aaaac

#3145
0aaaaa

#3150
1aaaaa
b10000 aaaac

#3155
0aaaaa

#3160
1aaaaa
b10001 aaaac

#3165
0aaaaa

#3170
1aaaaa
b10010 aaaac

#3175
0aaaaa

#3180
1aaaaa
b10011 aaaac

#3185
0aaaaa

#3190
1aaaaa
b10100 aaaac

#3195
0aaaaa

#3200
1aaaaa
b10101 aaaac

#3205
0aaaaa

#3210
1aaaaa
b10110 aaaac

#3215
0aaaaa

#3220
1aaaaa
b10111 aaaac

#3225
0aaaaa

#3230
1aaaaa
b11000 aaaac

#3235
0aaaaa

#3240
1aaaaa
b11001 aaaac

#3245
0aaaaa

#3250
1aaaaa
b11010 aaaac

#3255
0aaaaa

#3260
1aaaaa
b11011 aaaac

#3265
0aaaaa

#3270
1aaaaa
b11100 aaaac

#3275
0aaaaa

#3280
1aaaaa
b11101 aaaac

#3285
0aaaaa

#3290
1aaaaa
b11110 aaaac

#3295
0aaaaa

#3300
1aaaaa
b11111 aaaac

#3305
0aaaaa

#3310
1aaaaa
b100000 aaaac

#3315
0aaaaa

#3320
1aaaaa
b100001 aaaac

#3325
0aaaaa

#3330
1aaaaa
b100010 aaaac

#3335
0aaaaa

#3340
1aaaaa
b100011 aaaac

#3345
0aaaaa

#3350
1aaaaa
b100100 aaaac

#3355
0aaaaa

#3360
1aaaaa
b100101 aaaac

#3365
0aaaaa

#3370
1aaaaa
b100110 aaaac

#3375
0aaaaa

#3380
1aaaaa
b100111 aaaac

#3385
0aaaaa

#3390
1aaaaa
b101000 aaaac

#3395
0aaaaa

#3400
1aaaaa
b101001 aaaac

#3405
0aaaaa

#3410
1aaaaa
b101010 aaaac

#3415
0aaaaa

#3420
1aaaaa
b101011 aaaac

#3425
0aaaaa

#3430
1aaaaa
b101100 aaaac

#3435
0aaaaa

#3440
1aaaaa
b101101 aaaac

#3445
0aaaaa

#3450
1aaaaa
b101110 aaaac

#3455
0aaaaa

#3460
1aaaaa
b101111 aaaac

#3465
0aaaaa

#3470
1aaaaa
b110000 aaaac

#3475
0aaaaa

#3480
1aaaaa
b110001 aaaac

#3485
0aaaaa

#3490
1aaaaa
b110010 aaaac

#3495
0aaaaa

#3500
1aaaaa
b110011 aaaac

#3505
0aaaaa

#3510
1aaaaa
b110100 aaaac

#3515
0aaaaa

#3520
1aaaaa
b110101 aaaac

#3525
0aaaaa

#3530
1aaaaa
b110110 aaaac

#3535
0aaaaa

#3540
1aaaaa
b110111 aaaac

#3545
0aaaaa

#3550
1aaaaa
b111000 aaaac

#3555
0aaaaa

#3560
1aaaaa
b111001 aaaac

#3565
0aaaaa

#3570
1aaaaa
b111010 aaaac

#3575
0aaaaa

#3580
1aaaaa
b111011 aaaac

#3585
0aaaaa

#3590
1aaaaa
b110 aaaab
b0 aaaac

#3595
0aaaaa

#3600
1aaaaa
b1 aaaac

#3605
0aaaaa

#3610
1aaaaa
b10 aaaac

#3615
0aaaaa

#3620
1aaaaa
b11 aaaac

#3625
0aaaaa

#3630
1aaaaa
b100 aaaac

#3635
0aaaaa

#3640
1aaaaa
b101 aaaac

#3645
0aaaaa

#3650
1aaaaa
b110 aaaac

#3655
0aaaaa

#3660
1aaaaa
b111 aaaac

#3665
0aaaaa

#3670
1aaaaa
b1000 aaaac

#3675
0aaaaa

#3680
1aaaaa
b1001 aaaac

#3685
0aaaaa

#3690
1aaaaa
b1010 aaaac

#3695
0aaaaa

#3700
1aaaaa
b1011 aaaac

#3705
0aaaaa

#3710
1aaaaa
b1100 aaaac

#3715
0aaaaa

#3720
1aaaaa
b1101 aaaac

#3725
0aaaaa

#3730
1aaaaa
b1110 aaaac

#3735
0aaaaa

#3740
1aaaaa
b1111 aaaac

#3745
0aaaaa

#3750
1aaaaa
b10000 aaaac

#3755
0aaaaa

#3760
1aaaaa
b10001 aaaac

#3765
0aaaaa

#3770
1aaaaa
b10010 aaaac

#3775
0aaaaa

#3780
1aaaaa
b10011 aaaac

#3785
0aaaaa

#3790
1aaaaa
b10100 aaaac

#3795
0aaaaa

#3800
1aaaaa
b10101 aaaac

#3805
0aaaaa

#3810
1aaaaa
b10110 aaaac

#3815
0aaaaa

#3820
1aaaaa
b10111 aaaac

#3825
0aaaaa

#3830
1aaaaa
b11000 aaaac

#3835
0aaaaa

#3840
1aaaaa
b11001 aaaac

#3845
0aaaaa

#3850
1aaaaa
b11010 aaaac

#3855
0aaaaa

#3860
1aaaaa
b11011 aaaac

#3865
0aaaaa

#3870
1aaaaa
b11100 aaaac

#3875
0aaaaa

#3880
1aaaaa
b11101 aaaac

#3885
0aaaaa

#3890
1aaaaa
b11110 aaaac

#3895
0aaaaa

#3900
1aaaaa
b11111 aaaac

#3905
0aaaaa

#3910
1aaaaa
b100000 aaaac

#3915
0aaaaa

#3920
1aaaaa
b100001 aaaac

#3925
0aaaaa

#3930
1aaaaa
b100010 aaaac

#3935
0aaaaa

#3940
1aaaaa
b100011 aaaac

#3945
0aaaaa

#3950
1aaaaa
b100100 aaaac

#3955
0aaaaa

#3960
1aaaaa
b100101 aaaac

#3965
0aaaaa

#3970
1aaaaa
b100110 aaaac

#3975
0aaaaa

#3980
1aaaaa
b100111 aaaac

#3985
0aaaaa

#3990
1aaaaa
b101000 aaaac

#3995
0aaaaa

#4000
1aaaaa
b101001 aaaac

#4005
0aaaaa

#4010
1aaaaa
b101010 aaaac

#4015
0aaaaa

#4020
1aaaaa
b101011 aaaac

#4025
0aaaaa

#4030
1aaaaa
b101100 aaaac

#4035
0aaaaa

#4040
1aaaaa
b101101 aaaac

#4045
0aaaaa

#4050
1aaaaa
b101110 aaaac

#4055
0aaaaa

#4060
1aaaaa
b101111 aaaac

#4065
0aaaaa

#4070
1aaaaa
b110000 aaaac

#4075
0aaaaa

#4080
1aaaaa
b110001 aaaac

#4085
0aaaaa

#4090
1aaaaa
b110010 aaaac

#4095
0aaaaa

#4100
1aaaaa
b110011 aaaac

#4105
0aaaaa

#4110
1aaaaa
b110100 aaaac

#4115
0aaaaa

#4120
1aaaaa
b110101 aaaac

#4125
0aaaaa

#4130
1aaaaa
b110110 aaaac

#4135
0aaaaa

#4140
1aaaaa
b110111 aaaac

#4145
0aaaaa

#4150
1aaaaa
b111000 aaaac

#4155
0aaaaa

#4160
1aaaaa
b111001 aaaac

#4165
0aaaaa

#4170
1aaaaa
b111010 aaaac

#4175
0aaaaa

#4180
1aaaaa
b111011 aaaac

#4185
0aaaaa

#4190
1aaaaa
b111 aaaab
b0 aaaac

#4195
0aaaaa

#4200
1aaaaa
b1 aaaac

#4205
0aaaaa

#4210
1aaaaa
b10 aaaac

#4215
0aaaaa

#4220
1aaaaa
b11 aaaac

#4225
0aaaaa

#4230
1aaaaa
b100 aaaac

#4235
0aaaaa

#4240
1aaaaa
b101 aaaac

#4245
0aaaaa

#4250
1aaaaa
b110 aaaac

#4255
0aaaaa

#4260
1aaaaa
b111 aaaac

#4265
0aaaaa

#4270
1aaaaa
b1000 aaaac

#4275
0aaaaa

#4280
1aaaaa
b1001 aaaac

#4285
0aaaaa

#4290
1aaaaa
b1010 aaaac

#4295
0aaaaa

#4300
1aaaaa
b1011 aaaac

#4305
0aaaaa

#4310
1aaaaa
b1100 aaaac

#4315
0aaaaa

#4320
1aaaaa
b1101 aaaac

#4325
0aaaaa

#4330
1aaaaa
b1110 aaaac

#4335
0aaaaa

#4340
1aaaaa
b1111 aaaac

#4345
0aaaaa

#4350
1aaaaa
b10000 aaaac

#4355
0aaaaa

#4360
1aaaaa
b10001 aaaac

#4365
0aaaaa

#4370
1aaaaa
b10010 aaaac

#4375
0aaaaa

#4380
1aaaaa
b10011 aaaac

#4385
0aaaaa

#4390
1aaaaa
b10100 aaaac

#4395
0aaaaa

#4400
1aaaaa
b10101 aaaac

#4405
0aaaaa

#4410
1aaaaa
b10110 aaaac

#4415
0aaaaa

#4420
1aaaaa
b10111 aaaac

#4425
0aaaaa

#4430
1aaaaa
b11000 aaaac

#4435
0aaaaa

#4440
1aaaaa
b11001 aaaac

#4445
0aaaaa

#4450
1aaaaa
b11010 aaaac

#4455
0aaaaa

#4460
1aaaaa
b11011 aaaac

#4465
0aaaaa

#4470
1aaaaa
b11100 aaaac

#4475
0aaaaa

#4480
1aaaaa
b11101 aaaac

#4485
0aaaaa

#4490
1aaaaa
b11110 aaaac

#4495
0aaaaa

#4500
1aaaaa
b11111 aaaac

#4505
0aaaaa

#4510
1aaaaa
b100000 aaaac

#4515
0aaaaa

#4520
1aaaaa
b100001 aaaac

#4525
0aaaaa

#4530
1aaaaa
b100010 aaaac

#4535
0aaaaa

#4540
1aaaaa
b100011 aaaac

#4545
0aaaaa

#4550
1aaaaa
b100100 aaaac

#4555
0aaaaa

#4560
1aaaaa
b100101 aaaac

#4565
0aaaaa

#4570
1aaaaa
b100110 aaaac

#4575
0aaaaa

#4580
1aaaaa
b100111 aaaac

#4585
0aaaaa

#4590
1aaaaa
b101000 aaaac

#4595
0aaaaa

#4600
1aaaaa
b101001 aaaac

#4605
0aaaaa

#4610
1aaaaa
b101010 aaaac

#4615
0aaaaa

#4620
1aaaaa
b101011 aaaac

#4625
0aaaaa

#4630
1aaaaa
b101100 aaaac

#4635
0aaaaa

#4640
1aaaaa
b101101 aaaac

#4645
0aaaaa

#4650
1aaaaa
b101110 aaaac

#4655
0aaaaa

#4660
1aaaaa
b101111 aaaac

#4665
0aaaaa

#4670
1aaaaa
b110000 aaaac

#4675
0aaaaa

#4680
1aaaaa
b110001 aaaac

#4685
0aaaaa

#4690
1aaaaa
b110010 aaaac

#4695
0aaaaa

#4700
1aaaaa
b110011 aaaac

#4705
0aaaaa

#4710
1aaaaa
b110100 aaaac

#4715
0aaaaa

#4720
1aaaaa
b110101 aaaac

#4725
0aaaaa

#4730
1aaaaa
b110110 aaaac

#4735
0aaaaa

#4740
1aaaaa
b110111 aaaac

#4745
0aaaaa

#4750
1aaaaa
b111000 aaaac

#4755
0aaaaa

#4760
1aaaaa
b111001 aaaac

#4765
0aaaaa

#4770
1aaaaa
b111010 aaaac

#4775
0aaaaa

#4780
1aaaaa
b111011 aaaac

#4785
0aaaaa

#4790
1aaaaa
b1000 aaaab
b0 aaaac

#4795
0aaaaa

#4800
1aaaaa
b1 aaaac

#4805
0aaaaa

#4810
1aaaaa
b10 aaaac

#4815
0aaaaa

